{
  "candidates": [
    {
      "formatted_address": "238 Khyber Pass Rd, Grafton, Auckland 1023, New Zealand",
      "geometry": {
        "location": {
          "lat": -36.8654838,
          "lng": 174.7687825
        },
        "viewport": {
          "northeast": {
            "lat": -36.86422017010727,
            "lng": 174.7701033798928
          },
          "southwest": {
            "lat": -36.86691982989272,
            "lng": 174.7674037201073
          }
        }
      },
      "name": "RUSH"
    }
  ],
  "debug_log": {
    "line": []
  },
  "status": "OK"
}
